…
Use the function `generate_epi_cases()` to generate synthetic data for
cases. Here we use the negative binomial distribution.

``` r
cases <- generate_epi_cases(Poisson = FALSE,rep_fraction = .3)
```

    ## Calling generate_epi_cases to run SIR model and generate data...

``` r
cases
```

    ## # A tibble: 101 × 7
    ##      Day Date        Model Cases AvailableStaff Model_Available_Staff
    ##    <int> <date>      <dbl> <dbl>          <dbl>                 <dbl>
    ##  1     1 2025-03-01  0         0           1161                 1176 
    ##  2     2 2025-03-02  0.374     0           1155                 1158.
    ##  3     3 2025-03-03  0.608     2           1098                 1143.
    ##  4     4 2025-03-04  0.988     1           1112                 1131.
    ##  5     5 2025-03-05  1.60      2           1110                 1120.
    ##  6     6 2025-03-06  2.60      1           1072                 1112.
    ##  7     7 2025-03-07  4.23      1           1065                 1105.
    ##  8     8 2025-03-08  6.87      5           1100                 1099.
    ##  9     9 2025-03-09 11.1      16           1124                 1094.
    ## 10    10 2025-03-10 18.1       8           1134                 1089.
    ## # ℹ 91 more rows
    ## # ℹ 1 more variable: Model_Unavailable_Staff <dbl>
…
Next, we stratify these results into age cohorts, using the default
(this can be changed).

    ## Calling generate_cohort_epi_cases to stratify incidence by age cohort...
    ##  Groups  00-19*20-39*40-59*60-79*80-99*100-110 
    ##  Probs  0.15*0.2*0.2*0.25*0.19*0.01

    ## # A tibble: 101 × 9
    ##    Date       Index Input `00-19` `20-39` `40-59` `60-79` `80-99` `100-110`
    ##    <date>     <int> <dbl>   <dbl>   <dbl>   <dbl>   <dbl>   <dbl>     <dbl>
    ##  1 2025-03-01     1     0       0       0       0       0       0         0
    ##  2 2025-03-02     2     0       0       0       0       0       0         0
    ##  3 2025-03-03     3     2       0       1       1       0       0         0
    ##  4 2025-03-04     4     1       0       0       0       0       0         1
    ##  5 2025-03-05     5     2       1       1       0       0       0         0
    ##  6 2025-03-06     6     1       1       0       0       0       0         0
    ##  7 2025-03-07     7     1       0       0       0       0       0         1
    ##  8 2025-03-08     8     5       1       1       1       1       1         0
    ##  9 2025-03-09     9    16       2       3       5       4       1         1
    ## 10 2025-03-10    10     8       1       3       2       0       2         0
    ## # ℹ 91 more rows
…
    ## Joining with `by = join_by(Index)`

    ## # A tibble: 22,696 × 4
    ##    Date       CaseID   Age CohortGroup
    ##    <date>      <dbl> <int> <chr>      
    ##  1 2025-03-03      1    34 20-39      
    ##  2 2025-03-03      2    42 40-59      
    ##  3 2025-03-04      3   107 100-110    
    ##  4 2025-03-05      4     0 00-19      
    ##  5 2025-03-05      5    25 20-39      
    ##  6 2025-03-06      6    16 00-19      
    ##  7 2025-03-07      7   103 100-110    
    ##  8 2025-03-08      8     3 00-19      
    ##  9 2025-03-08      9    20 20-39      
    ## 10 2025-03-08     10    46 40-59      
    ## # ℹ 22,686 more rows

We can double-check the summaries to ensure they match the aggregated
values. We can see that two 80-99 year olds were infected on the 5th,
and this tallies with teh early age cohort stratification.

    ## `summarise()` has grouped output by 'Date'. You can override using the
    ## `.groups` argument.

    ## # A tibble: 228 × 3
    ## # Groups:   Date [50]
    ##    Date       CohortGroup Cases
    ##    <date>     <chr>       <int>
    ##  1 2025-03-03 20-39           1
    ##  2 2025-03-03 40-59           1
    ##  3 2025-03-04 100-110         1
    ##  4 2025-03-05 00-19           1
    ##  5 2025-03-05 20-39           1
    ##  6 2025-03-06 00-19           1
    ##  7 2025-03-07 100-110         1
    ##  8 2025-03-08 00-19           1
    ##  9 2025-03-08 20-39           1
    ## 10 2025-03-08 40-59           1
    ## # ℹ 218 more rows
…
    ## Processing Updates...
    ##   Processing EPI case 1 ...
    ##   Processing EPI case 2500 ...
    ##   Processing EPI case 5000 ...
    ##   Processing EPI case 7500 ...
    ##   Processing EPI case 10000 ...
    ##   Processing EPI case 12500 ...
    ##   Processing EPI case 15000 ...
    ##   Processing EPI case 17500 ...
    ##   Processing EPI case 20000 ...
    ##   Processing EPI case 22500 ...
    ## Completed hospital data generation...
    ## Epi Cases=  22696 Hospital Cases =  1647 Prop =  0.073

    ## # A tibble: 1,647 × 13
    ## # Rowwise: 
    ##    CaseID Source   Destination DateAdmitted DateDischarged   Age Gender
    ##     <dbl> <chr>    <chr>       <date>       <date>         <int> <chr> 
    ##  1     55 Hospital Home        2025-03-17   2025-03-25        78 M     
    ##  2     59 Home     Home        2025-03-19   2025-04-09        82 F     
    ##  3     60 Home     Home        2025-03-19   2025-04-08        91 M     
    ##  4     64 Hospital Home        2025-03-15   2025-04-01        81 F     
    ##  5     66 Home     Hospital    2025-03-11   2025-03-16        88 F     
    ##  6     94 Other    Home        2025-03-16   2025-04-06        96 M     
    ##  7    163 Home     Home        2025-03-23   2025-04-17        78 M     
    ##  8    187 Home     Home        2025-03-19   2025-04-09        80 M     
    ##  9    224 Other    Home        2025-03-19   2025-03-27        38 F     
    ## 10    229 Home     Hospital    2025-03-18   2025-03-29        57 F     
    ## # ℹ 1,637 more rows
    ## # ℹ 6 more variables: DateTestedPositive <date>, CohortGroup <chr>,
    ## #   HRisk <dbl>, Hospitalised <lgl>, TimeToAdmit <int>, TimeInHospital <int>
…
    ## Processing Updates...
    ##   Processing EPI case 1 ...
    ##   Processing EPI case 2500 ...
    ##   Processing EPI case 5000 ...
    ##   Processing EPI case 7500 ...
    ##   Processing EPI case 10000 ...
    ##   Processing EPI case 12500 ...
    ##   Processing EPI case 15000 ...
    ##   Processing EPI case 17500 ...
    ##   Processing EPI case 20000 ...
    ##   Processing EPI case 22500 ...
    ## Completed hospital data generation...
    ## Epi Cases=  22696 Hospital Cases =  1657 Prop =  0.073

    ## # A tibble: 1,657 × 13
    ## # Rowwise: 
    ##    Opname Herkomst Bestemming startdatumtijd einddatumtijd Leeftijd geslacht
    ##     <dbl> <chr>    <chr>      <date>         <date>           <int> <chr>   
    ##  1     10 Home     Home       2025-03-11     2025-03-22          46 M       
    ##  2     66 Home     Hospital   2025-03-16     2025-03-27          88 M       
    ##  3     83 Hospital Home       2025-03-17     2025-03-24          56 M       
    ##  4     88 Home     Home       2025-03-20     2025-04-08          78 M       
    ##  5     94 Home     Home       2025-03-19     2025-04-18          96 F       
    ##  6    128 Home     Home       2025-03-15     2025-03-23          31 F       
    ##  7    138 Home     Home       2025-03-18     2025-03-29          58 M       
    ##  8    151 Home     Home       2025-03-22     2025-03-30          68 M       
    ##  9    152 Home     Home       2025-03-18     2025-04-02          65 F       
    ## 10    170 Home     Hospital   2025-03-19     2025-04-12          74 M       
    ## # ℹ 1,647 more rows
    ## # ℹ 6 more variables: DateTestedPositive <date>, CohortGroup <chr>,
    ## #   HRisk <dbl>, Hospitalised <lgl>, TimeToAdmit <int>, TimeInHospital <int>
